{
    "name": "Easy Epaper",
    "version": "1.0.0",
    "description": "Based on the GxEPD2 library to get up and running faster with e-ink displays.",
    "keywords": "eink, gxepd2, epaper,e-ink",
    "repository":
    {
      "type": "git",
      "url": "https://framagit.org/SiouxVic/easy-epaper"
    },
    "authors":
    [
      {
        "name": "Victor Bretin",
        "email": "victor.bretin@free.fr"
      }
    ],
    "license": "MIT",
    "dependencies": {
      "zinggjm/GxEPD2": "1.3.0"
    },
    "frameworks": "*",
    "platforms": "*"
  }
  